........................
----------------------------------------------------------------------
Ran 24 tests in 0.012s

OK
Name               Stmts   Miss Branch BrPart  Cover   Missing
--------------------------------------------------------------
Diplomacy.py          84      0     48      0   100%
TestDiplomacy.py     127      0      2      0   100%
--------------------------------------------------------------
TOTAL                211      0     50      0   100%
