...........
----------------------------------------------------------------------
Ran 11 tests in 0.002s

OK
Name               Stmts   Miss Branch BrPart  Cover   Missing
--------------------------------------------------------------
Diplomacy.py          56      0     38      0   100%
TestDiplomacy.py      59      0      0      0   100%
--------------------------------------------------------------
TOTAL                115      0     38      0   100%
