....
----------------------------------------------------------------------
Ran 4 tests in 0.001s

OK
Name               Stmts   Miss Branch BrPart  Cover   Missing
--------------------------------------------------------------
Diplomacy.py          58      0     42      0   100%
TestDiplomacy.py      24      0      0      0   100%
--------------------------------------------------------------
TOTAL                 82      0     42      0   100%
